{
	"movies": [
		{
			"id": "tt0434409",
			"imdb_title_id": "tt0434409",
			"title": {
				"en": "V for Vendetta",
				"de": "V wie Vendetta"
			},
			"locations": [
				{
					"id": "tt0434409-1",
					"type": "Point",
					"longitude": 13.392388,
					"latitude": 52.513616,
					"title": {
						"en": "Regents balcony",
						"de": "Balkon des Herrschers"
					},
					"media_location_description": {
						"en": "The balcony, from which the regent (John Hurt) delivers his speeches.",
						"de": "Der Balkon, von dem aus der Herrscher (John Hurt) seine Reden hält."
					},
					"location_description": {
						"en": "This is the \"Schauspielhaus\" at Gendarmenmarkt, a house for plays, operas and such.",
						"de": "Gedreht wurde am Schauspielhaus auf dem Gendarmenmarkt, in dem sonst klassische Konzerte, Opern etc. stattfinden."
					}
				}
			]
		},
		{
			"id": "tt0402022",
			"imdb_title_id": "tt0402022",
			"title": {
				"en": "Æon Flux"
			},
			"locations": [
				{
					"id": "tt0402022-1",
					"type": "Point",
					"longitude": 13.530290,
					"latitude": 52.431480,
					"title": {
						"en": "Headquarter Hall",
						"de": "Halle des Hauptquartiers"
					},
					"media_location_description": {
						"en": "The headquarter hall where e.g. the exploding balls are rolling around.",
						"de": "Die Halle des Hauptquartiers, in der z.B. die explodierenden Kugeln rumkugeln."
					},
					"location_description": {
						"en": "The building is an old wind tunnel in Berlin Adlershof. It is a historical monument now.",
						"de": "Das Gebäude ist der alte Windkanal in Berlin Adlershof. Heute ist es ein Denkmal."
					}
				},
				{
					"id": "tt0402022-2",
					"type": "Point",
					"longitude": 13.544855,
					"latitude": 52.575418,
					"title": {
						"en": "Headquarter",
						"de": "Hauptquartier"
					},
					"media_location_description": {
						"en": "The exterior of the headquarter.",
						"de": "Das Äußere des Hauptquartiers."
					},
					"location_description": {
						"en": "This is the animal shelter of Berlin.",
						"de": "Das ist das Tierheim Berlin."
					}
				},
				{
					"id": "tt0402022-3",
					"type": "Point",
					"longitude": 13.491157,
					"latitude": 52.459599,
					"media_location_description": {
						"en": "Some scenes were shot here."
					},
					"location_description": {
						"en": "The crematory Baumschulenweg.",
						"de": "Das Krematorium Baumschulenweg."
					}
				},
				{
					"id": "tt0402022-4",
					"type": "Point",
					"longitude": 13.364761,
					"latitude": 52.518663,
					"media_location_description": {
						"en": "Some scenes were shot here."
					},
					"location_description": {
						"en": "The \"Haus der Kulturen der Welt\".",
						"de": "Das Haus der Kulturen der Welt."
					}
				}
			]
		},
		{
			"id": "tt0372183",
			"imdb_title_id": "tt0372183",
			"title": {
				"en": "The Bourne Supremacy"
			},
			"locations": [
				{
					"id": "tt0372183-1",
					"type": "Point",
					"longitude": 13.428179,
					"latitude": 52.522472,
					"title": {
						"en": "The Supermarket",
						"de": "Der Supermarkt"
					},
					"media_location_description": {
						"en": "The russian supermarket at the beginning of the movie.",
						"de": "Der russische Supermarkt am Anfang des Films."
					},
					"location_description": {
						"en": "The original building is a supermarket in Berlin, a *Reichelt* during time of shooting. In order to simulate wintertime, artificial snow was put around the mall. The scene was shot in May.",
						"de": "Das Gebäude ist ein Supermarkt, während des Drehs ein *Reichelt*. Um Winter zu simulieren, wurde künstlicher Schnee um den Supermarkt verteilt. Die Szene wurde im Mai gedreht."
					}
				}
			]
		},
		{
			"id": "tt0081947",
			"imdb_title_id": "tt0081947",
			"title": {
				"de": "Timm Thaler"
			},
			"locations": [
				{
					"id": "tt0081947-1",
					"type": "Point",
					"longitude": 10.035270,
					"latitude": 53.914720,
					"title": {
						"en": "Airfield Hartenholm",
						"de": "Flugplatz Hartenholm"
					},
					"location_description": {
						"en": "Airfield Hartenholm: Several scenes were filmed here in 1978.",
						"de": "Flugplatz Hartenholm: Einige Szenen wurde 1978 hier gedreht."
					}
				}
			]
		}
	]
}
